{
    "sourceFile": "screens/tabs/home.js",
    "activeCommit": 0,
    "commits": [
        {
            "activePatchIndex": 20,
            "patches": [
                {
                    "date": 1639239143772,
                    "content": "Index: \n===================================================================\n--- \n+++ \n"
                },
                {
                    "date": 1639239422678,
                    "content": "Index: \n===================================================================\n--- \n+++ \n@@ -110,9 +110,9 @@\n         screen: 'Laboratory',\n         icon: require('../../assets/images/lab.png')\n     },\n     {\n-        name: 'Home Care',\n+        name: 'Home Cares',\n         screen: 'Home Care',\n         icon: require('../../assets/images/homecare.png')\n     },    \n     {\n"
                },
                {
                    "date": 1639239431630,
                    "content": "Index: \n===================================================================\n--- \n+++ \n@@ -77,9 +77,9 @@\n         screen: 'Laboratory',\n         icon: require('../../assets/images/lab.png')\n     },\n     {\n-        name: 'Home Care',\n+        name: 'Home Cares',\n         screen: 'Home Care',\n         icon: require('../../assets/images/homecare.png')\n     },    \n     {\n@@ -110,9 +110,9 @@\n         screen: 'Laboratory',\n         icon: require('../../assets/images/lab.png')\n     },\n     {\n-        name: 'Home Cares',\n+        name: 'Home Care',\n         screen: 'Home Care',\n         icon: require('../../assets/images/homecare.png')\n     },    \n     {\n"
                },
                {
                    "date": 1639239446042,
                    "content": "Index: \n===================================================================\n--- \n+++ \n@@ -110,9 +110,9 @@\n         screen: 'Laboratory',\n         icon: require('../../assets/images/lab.png')\n     },\n     {\n-        name: 'Home Care',\n+        name: 'Home Cares',\n         screen: 'Home Care',\n         icon: require('../../assets/images/homecare.png')\n     },    \n     {\n"
                },
                {
                    "date": 1639239649557,
                    "content": "Index: \n===================================================================\n--- \n+++ \n@@ -44,9 +44,9 @@\n         screen: 'Laboratory',\n         icon: require('../../assets/images/lab.png')\n     },\n     {\n-        name: 'Home Care',\n+        name: 'Home Cares',\n         screen: 'Home Care',\n         icon: require('../../assets/images/homecare.png')\n     }\n ]\n"
                },
                {
                    "date": 1639239675507,
                    "content": "Index: \n===================================================================\n--- \n+++ \n@@ -44,9 +44,9 @@\n         screen: 'Laboratory',\n         icon: require('../../assets/images/lab.png')\n     },\n     {\n-        name: 'Home Cares',\n+        name: 'Home Care',\n         screen: 'Home Care',\n         icon: require('../../assets/images/homecare.png')\n     }\n ]\n@@ -77,9 +77,9 @@\n         screen: 'Laboratory',\n         icon: require('../../assets/images/lab.png')\n     },\n     {\n-        name: 'Home Cares',\n+        name: 'Home Care',\n         screen: 'Home Care',\n         icon: require('../../assets/images/homecare.png')\n     },    \n     {\n"
                },
                {
                    "date": 1639239819949,
                    "content": "Index: \n===================================================================\n--- \n+++ \n@@ -45,9 +45,9 @@\n         icon: require('../../assets/images/lab.png')\n     },\n     {\n         name: 'Home Care',\n-        screen: 'Home Care',\n+        screen: 'Emergency',\n         icon: require('../../assets/images/homecare.png')\n     }\n ]\n \n@@ -78,9 +78,9 @@\n         icon: require('../../assets/images/lab.png')\n     },\n     {\n         name: 'Home Care',\n-        screen: 'Home Care',\n+        screen: 'Emergency',\n         icon: require('../../assets/images/homecare.png')\n     },    \n     {\n         name: 'Upgrade',\n@@ -110,10 +110,10 @@\n         screen: 'Laboratory',\n         icon: require('../../assets/images/lab.png')\n     },\n     {\n-        name: 'Home Cares',\n-        screen: 'Home Care',\n+        name: 'Home Care',\n+        screen: 'Emergency',\n         icon: require('../../assets/images/homecare.png')\n     },    \n     {\n         name: 'Upgrade',\n"
                },
                {
                    "date": 1639240246216,
                    "content": "Index: \n===================================================================\n--- \n+++ \n@@ -224,9 +224,9 @@\n                     renderItem={item=>\n                     <MenuItem \n                         option={item}\n                         subscribed={'subscription' in user ? user.subscription != 'Normal' && user.subscription != null : false}\n-                        navigate={()=>navigation.navigate(item.item.screen)}/>}\n+                        navigate={()=>console.log(item.item.screen)}/>}\n                         keyExtractor={item=>item.name}\n                         showsHorizontalScrollIndicator={false}\n                         horizontal\n                         style={{marginVertical: 15, marginStart: 10}}\n"
                },
                {
                    "date": 1639240299327,
                    "content": "Index: \n===================================================================\n--- \n+++ \n@@ -224,9 +224,9 @@\n                     renderItem={item=>\n                     <MenuItem \n                         option={item}\n                         subscribed={'subscription' in user ? user.subscription != 'Normal' && user.subscription != null : false}\n-                        navigate={()=>console.log(item.item.screen)}/>}\n+                        navigate={()=>navigation.navigate(item.item.screen)}/>}\n                         keyExtractor={item=>item.name}\n                         showsHorizontalScrollIndicator={false}\n                         horizontal\n                         style={{marginVertical: 15, marginStart: 10}}\n"
                },
                {
                    "date": 1640732919725,
                    "content": "Index: \n===================================================================\n--- \n+++ \n@@ -203,8 +203,9 @@\n                         placeholder={'Search...'}\n                         autoCapitalize='none'\n                         placeholderTextColor={'grey'}\n                         returnKeyType='search'\n+                        editable={false}\n                         style={{\n                             marginTop: 25,\n                             marginBottom: 15\n                         }}/>\n"
                },
                {
                    "date": 1640732945942,
                    "content": "Index: \n===================================================================\n--- \n+++ \n@@ -203,9 +203,9 @@\n                         placeholder={'Search...'}\n                         autoCapitalize='none'\n                         placeholderTextColor={'grey'}\n                         returnKeyType='search'\n-                        editable={false}\n+                        editable={true}\n                         style={{\n                             marginTop: 25,\n                             marginBottom: 15\n                         }}/>\n"
                },
                {
                    "date": 1640732951517,
                    "content": "Index: \n===================================================================\n--- \n+++ \n@@ -203,9 +203,9 @@\n                         placeholder={'Search...'}\n                         autoCapitalize='none'\n                         placeholderTextColor={'grey'}\n                         returnKeyType='search'\n-                        editable={true}\n+                        editable={false}\n                         style={{\n                             marginTop: 25,\n                             marginBottom: 15\n                         }}/>\n"
                },
                {
                    "date": 1640732992336,
                    "content": "Index: \n===================================================================\n--- \n+++ \n@@ -1,6 +1,6 @@\n import React, { useEffect, useState } from 'react';\n-import { StyleSheet, View, Image, ScrollView, TouchableOpacity, SafeAreaView, Platform } from 'react-native'\n+import { StyleSheet, View, Image, ScrollView, TouchableOpacity, SafeAreaView, Platform, Keyboard } from 'react-native'\n import { Layout, Text, Button, Icon, Card, Input } from '@ui-kitten/components';\n import AsyncStorage from '@react-native-async-storage/async-storage';\n import { MenuItem, OnlineDoctor } from '../../utils/components';\n import { FlatList } from 'react-native-gesture-handler';\n@@ -204,8 +204,9 @@\n                         autoCapitalize='none'\n                         placeholderTextColor={'grey'}\n                         returnKeyType='search'\n                         editable={false}\n+                        onFocus={()=>{Keyboard.dismiss()}}\n                         style={{\n                             marginTop: 25,\n                             marginBottom: 15\n                         }}/>\n"
                },
                {
                    "date": 1640733150597,
                    "content": "Index: \n===================================================================\n--- \n+++ \n@@ -204,9 +204,12 @@\n                         autoCapitalize='none'\n                         placeholderTextColor={'grey'}\n                         returnKeyType='search'\n                         editable={false}\n-                        onFocus={()=>{Keyboard.dismiss()}}\n+                        onFocus={()=>{\n+                            navigation.navigate('Search')\n+                            Keyboard.dismiss()\n+                        }}\n                         style={{\n                             marginTop: 25,\n                             marginBottom: 15\n                         }}/>\n"
                },
                {
                    "date": 1640808733019,
                    "content": "Index: \n===================================================================\n--- \n+++ \n@@ -206,9 +206,9 @@\n                         returnKeyType='search'\n                         editable={false}\n                         onFocus={()=>{\n                             navigation.navigate('Search')\n-                            Keyboard.dismiss()\n+                            // Keyboard.dismiss()\n                         }}\n                         style={{\n                             marginTop: 25,\n                             marginBottom: 15\n"
                },
                {
                    "date": 1640809424253,
                    "content": "Index: \n===================================================================\n--- \n+++ \n@@ -0,0 +1,268 @@\n+import React, { useEffect, useState } from 'react';\n+import { StyleSheet, View, Image, ScrollView, TouchableOpacity, SafeAreaView, Platform, Keyboard } from 'react-native'\n+import { Layout, Text, Button, Icon, Card, Input } from '@ui-kitten/components';\n+import AsyncStorage from '@react-native-async-storage/async-storage';\n+import { MenuItem, OnlineDoctor } from '../../utils/components';\n+import { FlatList } from 'react-native-gesture-handler';\n+import { fetchDoctors } from '../../api/doctors';\n+import { userDetails, downgrade } from '../../api/auth';\n+import { colors } from '../../utils/constants';\n+import moment from 'moment';\n+\n+const BellIcon = (props) => (\n+    <Icon {...props} name='bell-outline'/>\n+);\n+\n+const main = [\n+    {\n+        name: 'Subscribe',\n+        screen: 'Subscription',\n+        icon: require('../../assets/images/subscription.png')\n+    },\n+    {\n+        name: 'Urgent Care',\n+        screen: 'Urgent',\n+        icon: require('../../assets/images/urgent_care.png')\n+    },\n+    {\n+        name: 'Emergency',\n+        screen: 'Ambulance',\n+        icon: require('../../assets/images/ambulance.png')\n+    },\n+    {\n+        name: 'Consultation',\n+        screen: 'Doctors',\n+        icon: require('../../assets/images/doctor.png')\n+    },\n+    {\n+        name: 'Pharmacy',\n+        screen: 'Pharmacy',\n+        icon: require('../../assets/images/pharmacy_.png')\n+    },\n+    {\n+        name: 'Laboratory',\n+        screen: 'Laboratory',\n+        icon: require('../../assets/images/lab.png')\n+    },\n+    {\n+        name: 'Home Care',\n+        screen: 'Emergency',\n+        icon: require('../../assets/images/homecare.png')\n+    }\n+]\n+\n+const secondary = [\n+    {\n+        name: 'Urgent Care',\n+        screen: 'Urgent',\n+        icon: require('../../assets/images/urgent_care.png')\n+    },\n+    {\n+        name: 'Emergency',\n+        screen: 'Ambulance',\n+        icon: require('../../assets/images/ambulance.png')\n+    },\n+    {\n+        name: 'Consultation',\n+        screen: 'Doctors',\n+        icon: require('../../assets/images/doctor.png')\n+    },\n+    {\n+        name: 'Pharmacy',\n+        screen: 'Pharmacy',\n+        icon: require('../../assets/images/pharmacy_.png')\n+    },\n+    {\n+        name: 'Laboratory',\n+        screen: 'Laboratory',\n+        icon: require('../../assets/images/lab.png')\n+    },\n+    {\n+        name: 'Home Care',\n+        screen: 'Emergency',\n+        icon: require('../../assets/images/homecare.png')\n+    },    \n+    {\n+        name: 'Upgrade',\n+        screen: 'Subscription',\n+        icon: require('../../assets/images/subscription.png')\n+    }\n+]\n+\n+const basic = [\n+    {\n+        name: 'Emergency',\n+        screen: 'Ambulance',\n+        icon: require('../../assets/images/ambulance.png')\n+    },\n+    {\n+        name: 'Consultation',\n+        screen: 'Doctors',\n+        icon: require('../../assets/images/doctor.png')\n+    },\n+    {\n+        name: 'Pharmacy',\n+        screen: 'Pharmacy',\n+        icon: require('../../assets/images/pharmacy_.png')\n+    },\n+    {\n+        name: 'Laboratory',\n+        screen: 'Laboratory',\n+        icon: require('../../assets/images/lab.png')\n+    },\n+    {\n+        name: 'Home Care',\n+        screen: 'Emergency',\n+        icon: require('../../assets/images/homecare.png')\n+    },    \n+    {\n+        name: 'Upgrade',\n+        screen: 'Subscription',\n+        icon: require('../../assets/images/subscription.png')\n+    }\n+]\n+\n+const Home = ({navigation}) => {\n+\n+    const [menu, setMenu] = useState([])\n+    const [user, setUser] = useState({})\n+    const [expiry, setexpiry] = useState()\n+    const [doctors, setDoctors] = useState([])\n+\n+    const checkSubscription = async(date)=>{\n+\n+        if(date == null){\n+            return\n+        }\n+\n+        const days = moment().diff(date, 'days')\n+        const left = moment(date).add(1, 'day').fromNow()\n+\n+        if(days == 0){\n+            setexpiry('Your subscription ends today. Renew now to avoid losing access to services')\n+        }else if (days < 0 && days > -11){\n+            setexpiry(`Your subscription ends in ${left}. Renew now to avoid losing access to services`)\n+        }else if(days > 0 && days < 10){\n+            setexpiry(`Your subscription ended ${left}. Renew now to avoid losing access to services`)\n+        }else if(days > 10){\n+            let res = await downgrade()\n+            console.info(res)\n+            // setexpiry(`Your subscription ended ${left}. Renew now to avoid losing access to services`)\n+        }\n+    }\n+\n+    useEffect(()=>{\n+        \n+        (async()=>{\n+            let account = await AsyncStorage.getItem('user')\n+            let token = await AsyncStorage.getItem('access-token')\n+            let key = await AsyncStorage.getItem('api-key');\n+            setUser(JSON.parse(account))\n+\n+            let online = await fetchDoctors()\n+            setDoctors(online.filter(doctor=>doctor.availability == 'Online'))\n+\n+            userDetails(JSON.parse(account).email, key, token).then(data=>{\n+                setUser(data)\n+            }).catch(e=>{\n+                console.log('Error: ', e)\n+            })\n+\n+            try{\n+                checkSubscription(JSON.parse(account).subscription_end);\n+            }catch(e){}\n+\n+            ['Family', 'Premium'].includes(JSON.parse(account).subscription) ?\n+                setMenu(secondary) :\n+            ['Basic'].includes(JSON.parse(account).subscription) ? setMenu(basic) : setMenu(main)\n+            \n+        })()\n+\n+    }, [])\n+\n+    return (\n+        \n+        <Layout style={{ flex: 1 }}>\n+            <View style={[style.top, {backgroundColor: colors.primary}]}>\n+                <SafeAreaView style={{paddingTop: Platform.OS == 'android' ? 35 : 0 }}>\n+                    <View style={{flexDirection: 'row', justifyContent: 'space-between' }}>\n+                        <View style={{flexDirection: 'row', justifyContent: 'space-between', alignItems: 'center'}}>\n+                            <TouchableOpacity onPress={()=>navigation.navigate('Profile')}>\n+                                <Image source={{uri: user ? user.avatar : ''}} style={{height: 50, width: 50, borderRadius: 75}} resizeMode={'cover'}/>\n+                            </TouchableOpacity>\n+                            <Text category={'h6'} style={{color: '#f2f2f2', fontSize: 18, marginStart: 10}}>{user ? user.firstname : ''}</Text>\n+                        </View>\n+\n+                        <Button onPress={()=>navigation.navigate('Notifications')} appearance='ghost' style={{ width: 50 }} status='control' accessoryLeft={BellIcon}/>\n+                        \n+                    </View>\n+\n+                    <Text category={'h4'} style={{marginTop: 15, color: 'white'}}>Find Health Services</Text>\n+                    <Input \n+                        size={'large'}\n+                        placeholder={'Search...'}\n+                        autoCapitalize='none'\n+                        placeholderTextColor={'grey'}\n+                        returnKeyType='search'\n+                        editable={false}\n+                        onFocus={()=>{\n+                            navigation.navigate('Search')\n+                            // Keyboard.dismiss()\n+                        }}\n+                        style={{\n+                            marginTop: 25,\n+                            marginBottom: 15\n+                        }}/>\n+                </SafeAreaView>\n+            </View>\n+\n+            <ScrollView shouldRasterizeIOS showsVerticalScrollIndicator={false}>\n+                { expiry ?\n+                <Card level={'3'} style={{marginTop: 15, marginHorizontal: 15, borderRadius: 8}}>\n+                    <Text category={'s1'} status={'danger'}>{expiry}</Text>\n+                    <Button onPress={()=>navigation.navigate('Subscription')} appearance='outline' style={{ marginTop: 10 }}>Renew Subscription</Button>\n+                </Card>\n+                : <></> }\n+\n+                <FlatList\n+                    data={ menu }\n+                    renderItem={item=>\n+                    <MenuItem \n+                        option={item}\n+                        subscribed={'subscription' in user ? user.subscription != 'Normal' && user.subscription != null : false}\n+                        navigate={()=>navigation.navigate(item.item.screen)}/>}\n+                        keyExtractor={item=>item.name}\n+                        showsHorizontalScrollIndicator={false}\n+                        horizontal\n+                        style={{marginVertical: 15, marginStart: 10}}\n+                    />\n+\n+                {  doctors.length > 0 ?\n+                <View style={{marginHorizontal: 15, flexDirection: 'row', alignItems: 'center'}}>\n+                    <View style={{marginStart: 5, height: 15, width: 15, borderRadius: 15, backgroundColor: 'green', marginEnd: 10}}/>\n+                    <Text category={'h4'}>Doctors Online</Text>\n+                </View> : <></> }\n+\n+                <FlatList\n+                    data={doctors}\n+                    renderItem={({item, index})=><OnlineDoctor navigate={()=>navigation.navigate('Doctor', {doctor: item})} doctor={item}/>}\n+                    keyExtractor={item=>item.email}\n+                    showsHorizontalScrollIndicator={false}\n+                    horizontal\n+                    style={{marginBottom: 15, marginStart: 10}}\n+                    />\n+            </ScrollView>\n+\n+        </Layout>\n+    );\n+}\n+\n+export default Home\n+\n+const style = StyleSheet.create({\n+    top: {\n+        borderBottomLeftRadius: 15,\n+        borderBottomRightRadius: 15,\n+        padding: 15\n+    }\n+})\n\\ No newline at end of file\n"
                },
                {
                    "date": 1640810593223,
                    "content": "Index: \n===================================================================\n--- \n+++ \n@@ -205,9 +205,9 @@\n                         placeholderTextColor={'grey'}\n                         returnKeyType='search'\n                         editable={false}\n                         onFocus={()=>{\n-                            navigation.navigate('Search')\n+                            navigation.navigate('Search', {menu: menu})\n                             // Keyboard.dismiss()\n                         }}\n                         style={{\n                             marginTop: 25,\n@@ -264,273 +264,5 @@\n         borderBottomLeftRadius: 15,\n         borderBottomRightRadius: 15,\n         padding: 15\n     }\n-})\n-import React, { useEffect, useState } from 'react';\n-import { StyleSheet, View, Image, ScrollView, TouchableOpacity, SafeAreaView, Platform, Keyboard } from 'react-native'\n-import { Layout, Text, Button, Icon, Card, Input } from '@ui-kitten/components';\n-import AsyncStorage from '@react-native-async-storage/async-storage';\n-import { MenuItem, OnlineDoctor } from '../../utils/components';\n-import { FlatList } from 'react-native-gesture-handler';\n-import { fetchDoctors } from '../../api/doctors';\n-import { userDetails, downgrade } from '../../api/auth';\n-import { colors } from '../../utils/constants';\n-import moment from 'moment';\n-\n-const BellIcon = (props) => (\n-    <Icon {...props} name='bell-outline'/>\n-);\n-\n-const main = [\n-    {\n-        name: 'Subscribe',\n-        screen: 'Subscription',\n-        icon: require('../../assets/images/subscription.png')\n-    },\n-    {\n-        name: 'Urgent Care',\n-        screen: 'Urgent',\n-        icon: require('../../assets/images/urgent_care.png')\n-    },\n-    {\n-        name: 'Emergency',\n-        screen: 'Ambulance',\n-        icon: require('../../assets/images/ambulance.png')\n-    },\n-    {\n-        name: 'Consultation',\n-        screen: 'Doctors',\n-        icon: require('../../assets/images/doctor.png')\n-    },\n-    {\n-        name: 'Pharmacy',\n-        screen: 'Pharmacy',\n-        icon: require('../../assets/images/pharmacy_.png')\n-    },\n-    {\n-        name: 'Laboratory',\n-        screen: 'Laboratory',\n-        icon: require('../../assets/images/lab.png')\n-    },\n-    {\n-        name: 'Home Care',\n-        screen: 'Emergency',\n-        icon: require('../../assets/images/homecare.png')\n-    }\n-]\n-\n-const secondary = [\n-    {\n-        name: 'Urgent Care',\n-        screen: 'Urgent',\n-        icon: require('../../assets/images/urgent_care.png')\n-    },\n-    {\n-        name: 'Emergency',\n-        screen: 'Ambulance',\n-        icon: require('../../assets/images/ambulance.png')\n-    },\n-    {\n-        name: 'Consultation',\n-        screen: 'Doctors',\n-        icon: require('../../assets/images/doctor.png')\n-    },\n-    {\n-        name: 'Pharmacy',\n-        screen: 'Pharmacy',\n-        icon: require('../../assets/images/pharmacy_.png')\n-    },\n-    {\n-        name: 'Laboratory',\n-        screen: 'Laboratory',\n-        icon: require('../../assets/images/lab.png')\n-    },\n-    {\n-        name: 'Home Care',\n-        screen: 'Emergency',\n-        icon: require('../../assets/images/homecare.png')\n-    },    \n-    {\n-        name: 'Upgrade',\n-        screen: 'Subscription',\n-        icon: require('../../assets/images/subscription.png')\n-    }\n-]\n-\n-const basic = [\n-    {\n-        name: 'Emergency',\n-        screen: 'Ambulance',\n-        icon: require('../../assets/images/ambulance.png')\n-    },\n-    {\n-        name: 'Consultation',\n-        screen: 'Doctors',\n-        icon: require('../../assets/images/doctor.png')\n-    },\n-    {\n-        name: 'Pharmacy',\n-        screen: 'Pharmacy',\n-        icon: require('../../assets/images/pharmacy_.png')\n-    },\n-    {\n-        name: 'Laboratory',\n-        screen: 'Laboratory',\n-        icon: require('../../assets/images/lab.png')\n-    },\n-    {\n-        name: 'Home Care',\n-        screen: 'Emergency',\n-        icon: require('../../assets/images/homecare.png')\n-    },    \n-    {\n-        name: 'Upgrade',\n-        screen: 'Subscription',\n-        icon: require('../../assets/images/subscription.png')\n-    }\n-]\n-\n-const Home = ({navigation}) => {\n-\n-    const [menu, setMenu] = useState([])\n-    const [user, setUser] = useState({})\n-    const [expiry, setexpiry] = useState()\n-    const [doctors, setDoctors] = useState([])\n-\n-    const checkSubscription = async(date)=>{\n-\n-        if(date == null){\n-            return\n-        }\n-\n-        const days = moment().diff(date, 'days')\n-        const left = moment(date).add(1, 'day').fromNow()\n-\n-        if(days == 0){\n-            setexpiry('Your subscription ends today. Renew now to avoid losing access to services')\n-        }else if (days < 0 && days > -11){\n-            setexpiry(`Your subscription ends in ${left}. Renew now to avoid losing access to services`)\n-        }else if(days > 0 && days < 10){\n-            setexpiry(`Your subscription ended ${left}. Renew now to avoid losing access to services`)\n-        }else if(days > 10){\n-            let res = await downgrade()\n-            console.info(res)\n-            // setexpiry(`Your subscription ended ${left}. Renew now to avoid losing access to services`)\n-        }\n-    }\n-\n-    useEffect(()=>{\n-        \n-        (async()=>{\n-            let account = await AsyncStorage.getItem('user')\n-            let token = await AsyncStorage.getItem('access-token')\n-            let key = await AsyncStorage.getItem('api-key');\n-            setUser(JSON.parse(account))\n-\n-            let online = await fetchDoctors()\n-            setDoctors(online.filter(doctor=>doctor.availability == 'Online'))\n-\n-            userDetails(JSON.parse(account).email, key, token).then(data=>{\n-                setUser(data)\n-            }).catch(e=>{\n-                console.log('Error: ', e)\n-            })\n-\n-            try{\n-                checkSubscription(JSON.parse(account).subscription_end);\n-            }catch(e){}\n-\n-            ['Family', 'Premium'].includes(JSON.parse(account).subscription) ?\n-                setMenu(secondary) :\n-            ['Basic'].includes(JSON.parse(account).subscription) ? setMenu(basic) : setMenu(main)\n-            \n-        })()\n-\n-    }, [])\n-\n-    return (\n-        \n-        <Layout style={{ flex: 1 }}>\n-            <View style={[style.top, {backgroundColor: colors.primary}]}>\n-                <SafeAreaView style={{paddingTop: Platform.OS == 'android' ? 35 : 0 }}>\n-                    <View style={{flexDirection: 'row', justifyContent: 'space-between' }}>\n-                        <View style={{flexDirection: 'row', justifyContent: 'space-between', alignItems: 'center'}}>\n-                            <TouchableOpacity onPress={()=>navigation.navigate('Profile')}>\n-                                <Image source={{uri: user ? user.avatar : ''}} style={{height: 50, width: 50, borderRadius: 75}} resizeMode={'cover'}/>\n-                            </TouchableOpacity>\n-                            <Text category={'h6'} style={{color: '#f2f2f2', fontSize: 18, marginStart: 10}}>{user ? user.firstname : ''}</Text>\n-                        </View>\n-\n-                        <Button onPress={()=>navigation.navigate('Notifications')} appearance='ghost' style={{ width: 50 }} status='control' accessoryLeft={BellIcon}/>\n-                        \n-                    </View>\n-\n-                    <Text category={'h4'} style={{marginTop: 15, color: 'white'}}>Find Health Services</Text>\n-                    <Input \n-                        size={'large'}\n-                        placeholder={'Search...'}\n-                        autoCapitalize='none'\n-                        placeholderTextColor={'grey'}\n-                        returnKeyType='search'\n-                        editable={false}\n-                        onFocus={()=>{\n-                            navigation.navigate('Search')\n-                            // Keyboard.dismiss()\n-                        }}\n-                        style={{\n-                            marginTop: 25,\n-                            marginBottom: 15\n-                        }}/>\n-                </SafeAreaView>\n-            </View>\n-\n-            <ScrollView shouldRasterizeIOS showsVerticalScrollIndicator={false}>\n-                { expiry ?\n-                <Card level={'3'} style={{marginTop: 15, marginHorizontal: 15, borderRadius: 8}}>\n-                    <Text category={'s1'} status={'danger'}>{expiry}</Text>\n-                    <Button onPress={()=>navigation.navigate('Subscription')} appearance='outline' style={{ marginTop: 10 }}>Renew Subscription</Button>\n-                </Card>\n-                : <></> }\n-\n-                <FlatList\n-                    data={ menu }\n-                    renderItem={item=>\n-                    <MenuItem \n-                        option={item}\n-                        subscribed={'subscription' in user ? user.subscription != 'Normal' && user.subscription != null : false}\n-                        navigate={()=>navigation.navigate(item.item.screen)}/>}\n-                        keyExtractor={item=>item.name}\n-                        showsHorizontalScrollIndicator={false}\n-                        horizontal\n-                        style={{marginVertical: 15, marginStart: 10}}\n-                    />\n-\n-                {  doctors.length > 0 ?\n-                <View style={{marginHorizontal: 15, flexDirection: 'row', alignItems: 'center'}}>\n-                    <View style={{marginStart: 5, height: 15, width: 15, borderRadius: 15, backgroundColor: 'green', marginEnd: 10}}/>\n-                    <Text category={'h4'}>Doctors Online</Text>\n-                </View> : <></> }\n-\n-                <FlatList\n-                    data={doctors}\n-                    renderItem={({item, index})=><OnlineDoctor navigate={()=>navigation.navigate('Doctor', {doctor: item})} doctor={item}/>}\n-                    keyExtractor={item=>item.email}\n-                    showsHorizontalScrollIndicator={false}\n-                    horizontal\n-                    style={{marginBottom: 15, marginStart: 10}}\n-                    />\n-            </ScrollView>\n-\n-        </Layout>\n-    );\n-}\n-\n-export default Home\n-\n-const style = StyleSheet.create({\n-    top: {\n-        borderBottomLeftRadius: 15,\n-        borderBottomRightRadius: 15,\n-        padding: 15\n-    }\n })\n\\ No newline at end of file\n"
                },
                {
                    "date": 1640811731249,
                    "content": "Index: \n===================================================================\n--- \n+++ \n@@ -205,9 +205,9 @@\n                         placeholderTextColor={'grey'}\n                         returnKeyType='search'\n                         editable={false}\n                         onFocus={()=>{\n-                            navigation.navigate('Search', {menu: menu})\n+                            navigation.navigate('Search', {menu: menu, user: user})\n                             // Keyboard.dismiss()\n                         }}\n                         style={{\n                             marginTop: 25,\n"
                },
                {
                    "date": 1640812083525,
                    "content": "Index: \n===================================================================\n--- \n+++ \n@@ -205,9 +205,9 @@\n                         placeholderTextColor={'grey'}\n                         returnKeyType='search'\n                         editable={false}\n                         onFocus={()=>{\n-                            navigation.navigate('Search', {menu: menu, user: user})\n+                            navigation.navigate('Search', {menu: menu, user: user, doctors: doctors})\n                             // Keyboard.dismiss()\n                         }}\n                         style={{\n                             marginTop: 25,\n"
                },
                {
                    "date": 1640867306874,
                    "content": "Index: \n===================================================================\n--- \n+++ \n@@ -200,16 +200,17 @@\n                     <Text category={'h4'} style={{marginTop: 15, color: 'white'}}>Find Health Services</Text>\n                     <Input \n                         size={'large'}\n                         placeholder={'Search...'}\n-                        autoCapitalize='none'\n                         placeholderTextColor={'grey'}\n-                        returnKeyType='search'\n                         editable={false}\n                         onFocus={()=>{\n-                            navigation.navigate('Search', {menu: menu, user: user, doctors: doctors})\n+                            // navigation.navigate('Search', {menu: menu, user: user, doctors: doctors})\n                             // Keyboard.dismiss()\n                         }}\n+                        onPressIn={()=>{\n+                            navigation.navigate('Search', {menu: menu, user: user, doctors: doctors})\n+                        }}\n                         style={{\n                             marginTop: 25,\n                             marginBottom: 15\n                         }}/>\n"
                },
                {
                    "date": 1640941530467,
                    "content": "Index: \n===================================================================\n--- \n+++ \n@@ -0,0 +1,269 @@\n+import React, { useEffect, useState } from 'react';\n+import { StyleSheet, View, Image, ScrollView, TouchableOpacity, SafeAreaView, Platform, Keyboard } from 'react-native'\n+import { Layout, Text, Button, Icon, Card, Input } from '@ui-kitten/components';\n+import AsyncStorage from '@react-native-async-storage/async-storage';\n+import { MenuItem, OnlineDoctor } from '../../utils/components';\n+import { FlatList } from 'react-native-gesture-handler';\n+import { fetchDoctors } from '../../api/doctors';\n+import { userDetails, downgrade } from '../../api/auth';\n+import { colors } from '../../utils/constants';\n+import moment from 'moment';\n+\n+const BellIcon = (props) => (\n+    <Icon {...props} name='bell-outline'/>\n+);\n+\n+const main = [\n+    {\n+        name: 'Subscribe',\n+        screen: 'Subscription',\n+        icon: require('../../assets/images/subscription.png')\n+    },\n+    {\n+        name: 'Urgent Care',\n+        screen: 'Urgent',\n+        icon: require('../../assets/images/urgent_care.png')\n+    },\n+    {\n+        name: 'Emergency',\n+        screen: 'Ambulance',\n+        icon: require('../../assets/images/ambulance.png')\n+    },\n+    {\n+        name: 'Consultation',\n+        screen: 'Doctors',\n+        icon: require('../../assets/images/doctor.png')\n+    },\n+    {\n+        name: 'Pharmacy',\n+        screen: 'Pharmacy',\n+        icon: require('../../assets/images/pharmacy_.png')\n+    },\n+    {\n+        name: 'Laboratory',\n+        screen: 'Laboratory',\n+        icon: require('../../assets/images/lab.png')\n+    },\n+    {\n+        name: 'Home Care',\n+        screen: 'Emergency',\n+        icon: require('../../assets/images/homecare.png')\n+    }\n+]\n+\n+const secondary = [\n+    {\n+        name: 'Urgent Care',\n+        screen: 'Urgent',\n+        icon: require('../../assets/images/urgent_care.png')\n+    },\n+    {\n+        name: 'Emergency',\n+        screen: 'Ambulance',\n+        icon: require('../../assets/images/ambulance.png')\n+    },\n+    {\n+        name: 'Consultation',\n+        screen: 'Doctors',\n+        icon: require('../../assets/images/doctor.png')\n+    },\n+    {\n+        name: 'Pharmacy',\n+        screen: 'Pharmacy',\n+        icon: require('../../assets/images/pharmacy_.png')\n+    },\n+    {\n+        name: 'Laboratory',\n+        screen: 'Laboratory',\n+        icon: require('../../assets/images/lab.png')\n+    },\n+    {\n+        name: 'Home Care',\n+        screen: 'Emergency',\n+        icon: require('../../assets/images/homecare.png')\n+    },    \n+    {\n+        name: 'Upgrade',\n+        screen: 'Subscription',\n+        icon: require('../../assets/images/subscription.png')\n+    }\n+]\n+\n+const basic = [\n+    {\n+        name: 'Emergency',\n+        screen: 'Ambulance',\n+        icon: require('../../assets/images/ambulance.png')\n+    },\n+    {\n+        name: 'Consultation',\n+        screen: 'Doctors',\n+        icon: require('../../assets/images/doctor.png')\n+    },\n+    {\n+        name: 'Pharmacy',\n+        screen: 'Pharmacy',\n+        icon: require('../../assets/images/pharmacy_.png')\n+    },\n+    {\n+        name: 'Laboratory',\n+        screen: 'Laboratory',\n+        icon: require('../../assets/images/lab.png')\n+    },\n+    {\n+        name: 'Home Care',\n+        screen: 'Emergency',\n+        icon: require('../../assets/images/homecare.png')\n+    },    \n+    {\n+        name: 'Upgrade',\n+        screen: 'Subscription',\n+        icon: require('../../assets/images/subscription.png')\n+    }\n+]\n+\n+const Home = ({navigation}) => {\n+\n+    const [menu, setMenu] = useState([])\n+    const [user, setUser] = useState({})\n+    const [expiry, setexpiry] = useState()\n+    const [doctors, setDoctors] = useState([])\n+\n+    const checkSubscription = async(date)=>{\n+\n+        if(date == null){\n+            return\n+        }\n+\n+        const days = moment().diff(date, 'days')\n+        const left = moment(date).add(1, 'day').fromNow()\n+\n+        if(days == 0){\n+            setexpiry('Your subscription ends today. Renew now to avoid losing access to services')\n+        }else if (days < 0 && days > -11){\n+            setexpiry(`Your subscription ends in ${left}. Renew now to avoid losing access to services`)\n+        }else if(days > 0 && days < 10){\n+            setexpiry(`Your subscription ended ${left}. Renew now to avoid losing access to services`)\n+        }else if(days > 10){\n+            let res = await downgrade()\n+            console.info(res)\n+            // setexpiry(`Your subscription ended ${left}. Renew now to avoid losing access to services`)\n+        }\n+    }\n+\n+    useEffect(()=>{\n+        \n+        (async()=>{\n+            let account = await AsyncStorage.getItem('user')\n+            let token = await AsyncStorage.getItem('access-token')\n+            let key = await AsyncStorage.getItem('api-key');\n+            setUser(JSON.parse(account))\n+\n+            let online = await fetchDoctors()\n+            setDoctors(online.filter(doctor=>doctor.availability == 'Online'))\n+\n+            userDetails(JSON.parse(account).email, key, token).then(data=>{\n+                setUser(data)\n+            }).catch(e=>{\n+                console.log('Error: ', e)\n+            })\n+\n+            try{\n+                checkSubscription(JSON.parse(account).subscription_end);\n+            }catch(e){}\n+\n+            ['Family', 'Premium'].includes(JSON.parse(account).subscription) ?\n+                setMenu(secondary) :\n+            ['Basic'].includes(JSON.parse(account).subscription) ? setMenu(basic) : setMenu(main)\n+            \n+        })()\n+\n+    }, [])\n+\n+    return (\n+        \n+        <Layout style={{ flex: 1 }}>\n+            <View style={[style.top, {backgroundColor: colors.primary}]}>\n+                <SafeAreaView style={{paddingTop: Platform.OS == 'android' ? 35 : 0 }}>\n+                    <View style={{flexDirection: 'row', justifyContent: 'space-between' }}>\n+                        <View style={{flexDirection: 'row', justifyContent: 'space-between', alignItems: 'center'}}>\n+                            <TouchableOpacity onPress={()=>navigation.navigate('Profile')}>\n+                                <Image source={{uri: user ? user.avatar : ''}} style={{height: 50, width: 50, borderRadius: 75}} resizeMode={'cover'}/>\n+                            </TouchableOpacity>\n+                            <Text category={'h6'} style={{color: '#f2f2f2', fontSize: 18, marginStart: 10}}>{user ? user.firstname : ''}</Text>\n+                        </View>\n+\n+                        <Button onPress={()=>navigation.navigate('Notifications')} appearance='ghost' style={{ width: 50 }} status='control' accessoryLeft={BellIcon}/>\n+                        \n+                    </View>\n+\n+                    <Text category={'h4'} style={{marginTop: 15, color: 'white'}}>Find Health Services</Text>\n+                    <Input \n+                        size={'large'}\n+                        placeholder={'Search...'}\n+                        placeholderTextColor={'grey'}\n+                        editable={false}\n+                        onFocus={()=>{\n+                            // navigation.navigate('Search', {menu: menu, user: user, doctors: doctors})\n+                            // Keyboard.dismiss()\n+                        }}\n+                        onPressIn={()=>{\n+                            navigation.navigate('Search', {menu: menu, user: user, doctors: doctors})\n+                        }}\n+                        style={{\n+                            marginTop: 25,\n+                            marginBottom: 15\n+                        }}/>\n+                </SafeAreaView>\n+            </View>\n+\n+            <ScrollView shouldRasterizeIOS showsVerticalScrollIndicator={false}>\n+                { expiry ?\n+                <Card level={'3'} style={{marginTop: 15, marginHorizontal: 15, borderRadius: 8}}>\n+                    <Text category={'s1'} status={'danger'}>{expiry}</Text>\n+                    <Button onPress={()=>navigation.navigate('Subscription')} appearance='outline' style={{ marginTop: 10 }}>Renew Subscription</Button>\n+                </Card>\n+                : <></> }\n+\n+                <FlatList\n+                    data={ menu }\n+                    renderItem={item=>\n+                    <MenuItem \n+                        option={item}\n+                        subscribed={'subscription' in user ? user.subscription != 'Normal' && user.subscription != null : false}\n+                        navigate={()=>navigation.navigate(item.item.screen, {doctors: doctors})}/>}\n+                        keyExtractor={item=>item.name}\n+                        showsHorizontalScrollIndicator={false}\n+                        horizontal\n+                        style={{marginVertical: 15, marginStart: 10}}\n+                    />\n+\n+                {  doctors.length > 0 ?\n+                <View style={{marginHorizontal: 15, flexDirection: 'row', alignItems: 'center'}}>\n+                    <View style={{marginStart: 5, height: 15, width: 15, borderRadius: 15, backgroundColor: 'green', marginEnd: 10}}/>\n+                    <Text category={'h4'}>Doctors Online</Text>\n+                </View> : <></> }\n+\n+                <FlatList\n+                    data={doctors}\n+                    renderItem={({item, index})=><OnlineDoctor navigate={()=>navigation.navigate('Doctor', {doctor: item})} doctor={item}/>}\n+                    keyExtractor={item=>item.email}\n+                    showsHorizontalScrollIndicator={false}\n+                    horizontal\n+                    style={{marginBottom: 15, marginStart: 10}}\n+                    />\n+            </ScrollView>\n+\n+        </Layout>\n+    );\n+}\n+\n+export default Home\n+\n+const style = StyleSheet.create({\n+    top: {\n+        borderBottomLeftRadius: 15,\n+        borderBottomRightRadius: 15,\n+        padding: 15\n+    }\n+})\n\\ No newline at end of file\n"
                }
            ],
            "date": 1639239143772,
            "name": "Commit-0",
            "content": "import React, { useEffect, useState } from 'react';\nimport { StyleSheet, View, Image, ScrollView, TouchableOpacity, SafeAreaView, Platform } from 'react-native'\nimport { Layout, Text, Button, Icon, Card, Input } from '@ui-kitten/components';\nimport AsyncStorage from '@react-native-async-storage/async-storage';\nimport { MenuItem, OnlineDoctor } from '../../utils/components';\nimport { FlatList } from 'react-native-gesture-handler';\nimport { fetchDoctors } from '../../api/doctors';\nimport { userDetails, downgrade } from '../../api/auth';\nimport { colors } from '../../utils/constants';\nimport moment from 'moment';\n\nconst BellIcon = (props) => (\n    <Icon {...props} name='bell-outline'/>\n);\n\nconst main = [\n    {\n        name: 'Subscribe',\n        screen: 'Subscription',\n        icon: require('../../assets/images/subscription.png')\n    },\n    {\n        name: 'Urgent Care',\n        screen: 'Urgent',\n        icon: require('../../assets/images/urgent_care.png')\n    },\n    {\n        name: 'Emergency',\n        screen: 'Ambulance',\n        icon: require('../../assets/images/ambulance.png')\n    },\n    {\n        name: 'Consultation',\n        screen: 'Doctors',\n        icon: require('../../assets/images/doctor.png')\n    },\n    {\n        name: 'Pharmacy',\n        screen: 'Pharmacy',\n        icon: require('../../assets/images/pharmacy_.png')\n    },\n    {\n        name: 'Laboratory',\n        screen: 'Laboratory',\n        icon: require('../../assets/images/lab.png')\n    },\n    {\n        name: 'Home Care',\n        screen: 'Home Care',\n        icon: require('../../assets/images/homecare.png')\n    }\n]\n\nconst secondary = [\n    {\n        name: 'Urgent Care',\n        screen: 'Urgent',\n        icon: require('../../assets/images/urgent_care.png')\n    },\n    {\n        name: 'Emergency',\n        screen: 'Ambulance',\n        icon: require('../../assets/images/ambulance.png')\n    },\n    {\n        name: 'Consultation',\n        screen: 'Doctors',\n        icon: require('../../assets/images/doctor.png')\n    },\n    {\n        name: 'Pharmacy',\n        screen: 'Pharmacy',\n        icon: require('../../assets/images/pharmacy_.png')\n    },\n    {\n        name: 'Laboratory',\n        screen: 'Laboratory',\n        icon: require('../../assets/images/lab.png')\n    },\n    {\n        name: 'Home Care',\n        screen: 'Home Care',\n        icon: require('../../assets/images/homecare.png')\n    },    \n    {\n        name: 'Upgrade',\n        screen: 'Subscription',\n        icon: require('../../assets/images/subscription.png')\n    }\n]\n\nconst basic = [\n    {\n        name: 'Emergency',\n        screen: 'Ambulance',\n        icon: require('../../assets/images/ambulance.png')\n    },\n    {\n        name: 'Consultation',\n        screen: 'Doctors',\n        icon: require('../../assets/images/doctor.png')\n    },\n    {\n        name: 'Pharmacy',\n        screen: 'Pharmacy',\n        icon: require('../../assets/images/pharmacy_.png')\n    },\n    {\n        name: 'Laboratory',\n        screen: 'Laboratory',\n        icon: require('../../assets/images/lab.png')\n    },\n    {\n        name: 'Home Care',\n        screen: 'Home Care',\n        icon: require('../../assets/images/homecare.png')\n    },    \n    {\n        name: 'Upgrade',\n        screen: 'Subscription',\n        icon: require('../../assets/images/subscription.png')\n    }\n]\n\nconst Home = ({navigation}) => {\n\n    const [menu, setMenu] = useState([])\n    const [user, setUser] = useState({})\n    const [expiry, setexpiry] = useState()\n    const [doctors, setDoctors] = useState([])\n\n    const checkSubscription = async(date)=>{\n\n        if(date == null){\n            return\n        }\n\n        const days = moment().diff(date, 'days')\n        const left = moment(date).add(1, 'day').fromNow()\n\n        if(days == 0){\n            setexpiry('Your subscription ends today. Renew now to avoid losing access to services')\n        }else if (days < 0 && days > -11){\n            setexpiry(`Your subscription ends in ${left}. Renew now to avoid losing access to services`)\n        }else if(days > 0 && days < 10){\n            setexpiry(`Your subscription ended ${left}. Renew now to avoid losing access to services`)\n        }else if(days > 10){\n            let res = await downgrade()\n            console.info(res)\n            // setexpiry(`Your subscription ended ${left}. Renew now to avoid losing access to services`)\n        }\n    }\n\n    useEffect(()=>{\n        \n        (async()=>{\n            let account = await AsyncStorage.getItem('user')\n            let token = await AsyncStorage.getItem('access-token')\n            let key = await AsyncStorage.getItem('api-key');\n            setUser(JSON.parse(account))\n\n            let online = await fetchDoctors()\n            setDoctors(online.filter(doctor=>doctor.availability == 'Online'))\n\n            userDetails(JSON.parse(account).email, key, token).then(data=>{\n                setUser(data)\n            }).catch(e=>{\n                console.log('Error: ', e)\n            })\n\n            try{\n                checkSubscription(JSON.parse(account).subscription_end);\n            }catch(e){}\n\n            ['Family', 'Premium'].includes(JSON.parse(account).subscription) ?\n                setMenu(secondary) :\n            ['Basic'].includes(JSON.parse(account).subscription) ? setMenu(basic) : setMenu(main)\n            \n        })()\n\n    }, [])\n\n    return (\n        \n        <Layout style={{ flex: 1 }}>\n            <View style={[style.top, {backgroundColor: colors.primary}]}>\n                <SafeAreaView style={{paddingTop: Platform.OS == 'android' ? 35 : 0 }}>\n                    <View style={{flexDirection: 'row', justifyContent: 'space-between' }}>\n                        <View style={{flexDirection: 'row', justifyContent: 'space-between', alignItems: 'center'}}>\n                            <TouchableOpacity onPress={()=>navigation.navigate('Profile')}>\n                                <Image source={{uri: user ? user.avatar : ''}} style={{height: 50, width: 50, borderRadius: 75}} resizeMode={'cover'}/>\n                            </TouchableOpacity>\n                            <Text category={'h6'} style={{color: '#f2f2f2', fontSize: 18, marginStart: 10}}>{user ? user.firstname : ''}</Text>\n                        </View>\n\n                        <Button onPress={()=>navigation.navigate('Notifications')} appearance='ghost' style={{ width: 50 }} status='control' accessoryLeft={BellIcon}/>\n                        \n                    </View>\n\n                    <Text category={'h4'} style={{marginTop: 15, color: 'white'}}>Find Health Services</Text>\n                    <Input \n                        size={'large'}\n                        placeholder={'Search...'}\n                        autoCapitalize='none'\n                        placeholderTextColor={'grey'}\n                        returnKeyType='search'\n                        style={{\n                            marginTop: 25,\n                            marginBottom: 15\n                        }}/>\n                </SafeAreaView>\n            </View>\n\n            <ScrollView shouldRasterizeIOS showsVerticalScrollIndicator={false}>\n                { expiry ?\n                <Card level={'3'} style={{marginTop: 15, marginHorizontal: 15, borderRadius: 8}}>\n                    <Text category={'s1'} status={'danger'}>{expiry}</Text>\n                    <Button onPress={()=>navigation.navigate('Subscription')} appearance='outline' style={{ marginTop: 10 }}>Renew Subscription</Button>\n                </Card>\n                : <></> }\n\n                <FlatList\n                    data={ menu }\n                    renderItem={item=>\n                    <MenuItem \n                        option={item}\n                        subscribed={'subscription' in user ? user.subscription != 'Normal' && user.subscription != null : false}\n                        navigate={()=>navigation.navigate(item.item.screen)}/>}\n                        keyExtractor={item=>item.name}\n                        showsHorizontalScrollIndicator={false}\n                        horizontal\n                        style={{marginVertical: 15, marginStart: 10}}\n                    />\n\n                {  doctors.length > 0 ?\n                <View style={{marginHorizontal: 15, flexDirection: 'row', alignItems: 'center'}}>\n                    <View style={{marginStart: 5, height: 15, width: 15, borderRadius: 15, backgroundColor: 'green', marginEnd: 10}}/>\n                    <Text category={'h4'}>Doctors Online</Text>\n                </View> : <></> }\n\n                <FlatList\n                    data={doctors}\n                    renderItem={({item, index})=><OnlineDoctor navigate={()=>navigation.navigate('Doctor', {doctor: item})} doctor={item}/>}\n                    keyExtractor={item=>item.email}\n                    showsHorizontalScrollIndicator={false}\n                    horizontal\n                    style={{marginBottom: 15, marginStart: 10}}\n                    />\n            </ScrollView>\n\n        </Layout>\n    );\n}\n\nexport default Home\n\nconst style = StyleSheet.create({\n    top: {\n        borderBottomLeftRadius: 15,\n        borderBottomRightRadius: 15,\n        padding: 15\n    }\n})"
        }
    ]
}