{
    "sourceFile": "api/lab.js",
    "activeCommit": 0,
    "commits": [
        {
            "activePatchIndex": 0,
            "patches": [
                {
                    "date": 1641073128639,
                    "content": "Index: \n===================================================================\n--- \n+++ \n"
                }
            ],
            "date": 1641073128639,
            "name": "Commit-0",
            "content": "import AsyncStorage from '@react-native-async-storage/async-storage';\n\nconst axios = require('axios');\n\nexport const facilityLabRequest = async (data) => {\n\n    const key = await apiKey()\n    const auth = await AsyncStorage.getItem('access-token');\n\n    const response = await axios({\n        method: 'POST',\n        url: 'https://api.clarondoc.com/requests/tests/facility',\n        data,\n        headers: {\n            'Content-Type': 'application/json',\n            'Authorization': `Bearer ${auth}`,\n            'x-api-key': key\n        }\n    })\n\n    return response.data\n}\n\nexport const individualLabRequest = async (data) => {\n\n    try{\n        const key = await apiKey()\n        const auth = await AsyncStorage.getItem('access-token');\n\n        const response = await axios({\n            method: 'POST',\n            url: 'https://api.clarondoc.com/requests/tests/individual',\n            data,\n            headers: {\n                'Content-Type': 'application/json',\n                'Authorization': `Bearer ${auth}`,\n                'x-api-key': key\n            }\n        })\n        console.log(response.data)\n\n        return response.data.success\n        \n    }catch(e){\n        console.log(e)\n        return false\n    }\n}\n\nexport const getLabTests = async () => {\n    const key = await apiKey()\n    const auth = await AsyncStorage.getItem('access-token');\n\n    const response = await axios({\n        method: 'GET',\n        url: `https://api.clarondoc.com/tests`,\n        headers: {\n            'Content-Type': 'application/json',\n            'Authorization': `Bearer ${auth}`,\n            'x-api-key': key\n        }\n    })\n\n    return response.data.tests\n}\n\nexport const apiKey = async () => {\n    let key = await AsyncStorage.getItem('api-key');\n\n    if(key != null){\n        return key\n    }else{\n        const response = await axios({\n            method: 'POST',\n            url: 'https://api.clarondoc.com/getAPIKey',\n            data: {\n                email: 'developer@clarondoc.com',\n                password: 'Basket012Ball'\n            },\n            headers: {\n                'Content-Type': 'application/json',\n            }\n        })\n\n        key = response.data.apiKey\n\n        await AsyncStorage.setItem('api-key', key)\n\n        return key\n    }\n}\n\n// start\nexport const insurancefacilityLabRequest = async (data) => {\n\n    const key = await apiKey()\n    const auth = await AsyncStorage.getItem('access-token');\n\n    const response = await axios({\n        method: 'POST',\n        url: 'https://api.clarondoc.com/requests/tests/facility',\n        data,\n        headers: {\n            'Content-Type': 'application/json',\n            'Authorization': `Bearer ${auth}`,\n            'x-api-key': key\n        }\n    })\n\n    return response.data\n}\n\nexport const insuranceindividualLabRequest = async (data) => {\n\n    try{\n        const key = await apiKey()\n        const auth = await AsyncStorage.getItem('access-token');\n\n        const response = await axios({\n            method: 'POST',\n            url: 'https://api.clarondoc.com/requests/tests/individual',\n            data,\n            headers: {\n                'Content-Type': 'application/json',\n                'Authorization': `Bearer ${auth}`,\n                'x-api-key': key\n            }\n        })\n        console.log(response.data)\n\n        return response.data.success\n        \n    }catch(e){\n        console.log(e)\n        return false\n    }\n}\n\nexport const insurancegetLabTests = async () => {\n    const key = await apiKey()\n    const auth = await AsyncStorage.getItem('access-token');\n\n    const response = await axios({\n        method: 'GET',\n        url: `https://api.clarondoc.com/tests`,\n        headers: {\n            'Content-Type': 'application/json',\n            'Authorization': `Bearer ${auth}`,\n            'x-api-key': key\n        }\n    })\n\n    return response.data.tests\n}\n// stop"
        }
    ]
}