{
    "sourceFile": "android/app/src/main/assets/appcenter-config.json",
    "activeCommit": 0,
    "commits": [
        {
            "activePatchIndex": 1,
            "patches": [
                {
                    "date": 1640245519210,
                    "content": "Index: \n===================================================================\n--- \n+++ \n"
                },
                {
                    "date": 1640245530053,
                    "content": "Index: \n===================================================================\n--- \n+++ \n@@ -1,3 +1,3 @@\n {\n     \"app_secret\": \"a6da70c9-0a2b-4aa3-8dde-b6b74cc1220f\"\n-  }\n\\ No newline at end of file\n+}\n\\ No newline at end of file\n"
                }
            ],
            "date": 1640245519210,
            "name": "Commit-0",
            "content": "{\n    \"app_secret\": \"a6da70c9-0a2b-4aa3-8dde-b6b74cc1220f\"\n  }"
        }
    ]
}